<svg xmlns="http://www.w3.org/2000/svg" xmlns:xlink="http://www.w3.org/1999/xlink" width="20" height="20" viewBox="0 0 20 20">
  <defs>
    <clipPath id="clip-path">
      <rect id="Rectangle_283" data-name="Rectangle 283" width="20" height="20" transform="translate(0 -0.284)" fill="#fff"/>
    </clipPath>
  </defs>
  <g id="Group_53" data-name="Group 53" transform="translate(0 0.284)" clip-path="url(#clip-path)">
    <path id="Path_74" data-name="Path 74" d="M17.947,4.876c-.087.829-.173,1.58-.238,2.332a.669.669,0,0,0,.107.406c.43.621.876,1.232,1.323,1.841a.208.208,0,0,1,.007.293c-.393.529-.76,1.076-1.167,1.594a1.143,1.143,0,0,0-.262.944c.1.643.146,1.292.22,1.938a.249.249,0,0,1-.17.3q-1.049.458-2.088.937a.5.5,0,0,0-.225.221q-.48,1.039-.936,2.089a.261.261,0,0,1-.313.177c-.758-.085-1.515-.171-2.274-.241a.536.536,0,0,0-.324.106q-.926.653-1.838,1.327a.233.233,0,0,1-.331,0c-.546-.407-1.113-.786-1.647-1.207a1.035,1.035,0,0,0-.849-.207c-.651.088-1.307.146-1.96.218A.234.234,0,0,1,4.7,17.79q-.461-1.06-.945-2.109a.464.464,0,0,0-.206-.213c-.693-.32-1.388-.634-2.089-.936a.284.284,0,0,1-.195-.345c.088-.757.172-1.515.244-2.273a.471.471,0,0,0-.1-.284Q.751,10.7.072,9.773a.23.23,0,0,1,0-.33c.391-.521.757-1.061,1.155-1.575a1.125,1.125,0,0,0,.262-.922c-.1-.649-.15-1.306-.222-1.96A.233.233,0,0,1,1.416,4.7q1.07-.465,2.129-.954a.432.432,0,0,0,.2-.194q.487-1.06.954-2.13a.233.233,0,0,1,.276-.162c.757.083,1.515.17,2.274.239a.566.566,0,0,0,.345-.1C8.217.964,8.835.516,9.451.064A.205.205,0,0,1,9.743.058c.528.394,1.073.765,1.593,1.167a1.126,1.126,0,0,0,.922.264c.649-.1,1.306-.149,1.959-.223a.248.248,0,0,1,.3.17q.462,1.06.946,2.11a.463.463,0,0,0,.208.21c.7.322,1.406.63,2.105.952a.635.635,0,0,1,.175.168M5.578,2.486a.6.6,0,0,0-.177.176c-.218.46-.439.919-.619,1.394a1.161,1.161,0,0,1-.724.727c-.475.18-.931.407-1.4.613-.119.053-.2.121-.181.271.059.52.12,1.039.161,1.561.018.235.128.471-.058.709C2.21,8.414,1.87,8.917,1.5,9.4a.285.285,0,0,0,0,.411c.368.482.723.973,1.073,1.468a.543.543,0,0,1,.113.324c-.056.632-.13,1.263-.2,1.894a.267.267,0,0,0,.178.316c.473.207.933.447,1.416.624a1.13,1.13,0,0,1,.7.717c.185.473.4.935.621,1.393a.331.331,0,0,0,.243.169c.529-.037,1.056-.108,1.585-.151.242-.02.483-.119.727.075.474.378.978.716,1.461,1.083a.262.262,0,0,0,.374,0q.726-.548,1.468-1.074a.551.551,0,0,1,.321-.126c.633.055,1.264.127,1.895.2a.277.277,0,0,0,.337-.178c.211-.487.448-.964.642-1.458a1.013,1.013,0,0,1,.618-.623c.5-.2.989-.427,1.475-.66a.328.328,0,0,0,.163-.246c-.038-.529-.11-1.056-.152-1.585-.019-.235-.12-.47.067-.707.375-.476.716-.979,1.082-1.462a.272.272,0,0,0,0-.392c-.368-.482-.722-.974-1.074-1.468a.523.523,0,0,1-.124-.3c.055-.625.124-1.249.2-1.872a.316.316,0,0,0-.2-.389c-.468-.2-.926-.423-1.4-.61a1.078,1.078,0,0,1-.666-.665c-.187-.5-.421-.975-.652-1.453a.326.326,0,0,0-.249-.158c-.536.04-1.07.113-1.605.157-.228.019-.455.107-.684-.075-.475-.376-.978-.716-1.461-1.083A.274.274,0,0,0,9.4,1.5c-.483.366-.972.725-1.47,1.07a.645.645,0,0,1-.388.1c-.626-.046-1.25-.113-1.965-.181" transform="translate(0 0)" fill="#fff"/>
    <path id="Path_75" data-name="Path 75" d="M89.72,82.288a6.028,6.028,0,0,1-2.041,6.442,6.107,6.107,0,1,1-2.8-10.789c-.062.333-.117.669-.193,1-.01.043-.131.093-.194.085a4.854,4.854,0,0,0-4.125,1.4,4.705,4.705,0,0,0-1.421,2.908,4.809,4.809,0,0,0,1.7,4.394A4.734,4.734,0,0,0,84.66,88.85a4.954,4.954,0,0,0,4.1-5.778c-.091-.53-.188-.463.369-.609.195-.051.386-.113.593-.175" transform="translate(-74.262 -74.353)" fill="#fff"/>
    <path id="Path_76" data-name="Path 76" d="M139.6,170.237l-2.2-2.222c.224-.22.456-.46.706-.68.032-.029.176.021.231.074.361.348.718.7,1.063,1.065.142.149.238.149.382,0,.978-.989,1.965-1.97,2.945-2.958.1-.1.164-.106.258-.007.16.168.319.338.493.491s.141.254-.008.4c-.394.378-.776.768-1.163,1.153l-2.622,2.614c-.021.021-.045.038-.082.07" transform="translate(-131.224 -158.007)" fill="#fff"/>
    <path id="Path_77" data-name="Path 77" d="M257.57,90.408c.127-.3.252-.575.365-.859.058-.145.147-.153.263-.087.26.147.518.3.777.445.1.058.107.129.042.22-.166.23-.325.466-.5.69a.191.191,0,0,1-.18.04c-.255-.137-.5-.291-.769-.45" transform="translate(-245.997 -85.404)" fill="#fff"/>
    <path id="Path_78" data-name="Path 78" d="M299.316,127.172c-.181-.25-.354-.475-.508-.712a.222.222,0,0,1,.032-.209,8.141,8.141,0,0,1,.618-.554.2.2,0,0,1,.2.015c.221.281.428.573.662.893l-1,.567" transform="translate(-285.369 -120.031)" fill="#fff"/>
  </g>
</svg>
